%YAML 1.1
%TAG !u! tag:unity3d.com,2011:
--- !u!114 &-8042816573345726040
MonoBehaviour:
  m_ObjectHideFlags: 0
  m_CorrespondingSourceObject: {fileID: 0}
  m_PrefabInstance: {fileID: 0}
  m_PrefabAsset: {fileID: 0}
  m_GameObject: {fileID: 0}
  m_Enabled: 1
  m_EditorHideFlags: 0
  m_Script: {fileID: 11500000, guid: dbedb33456e95b1469db95efe6b36a48, type: 3}
  m_Name: 
  m_EditorClassIdentifier: 
  m_bRoot: 0
  m_parent: {fileID: 11400000}
  m_eNodeCat: 1
  m_eNodeTag: 5
  m_strTitle: goFoward
  m_strPath: Assets/VillageBuild/AI/Behavior/OnceMove.asset
  m_wndNodeRect:
    serializedVersion: 2
    x: 2536.705
    y: 1676
    width: 300
    height: 200
  m_nNodeID: 145
  m_bRepeat: 0
  m_eAnimType: 0
  m_eAnimClipType: 2
  m_nReAnimClip: 0
  m_strAnimParam: State
--- !u!114 &-4461756212114604601
MonoBehaviour:
  m_ObjectHideFlags: 0
  m_CorrespondingSourceObject: {fileID: 0}
  m_PrefabInstance: {fileID: 0}
  m_PrefabAsset: {fileID: 0}
  m_GameObject: {fileID: 0}
  m_Enabled: 1
  m_EditorHideFlags: 0
  m_Script: {fileID: 11500000, guid: a41ef5ade109de34e8e192e1818f48e0, type: 3}
  m_Name: 
  m_EditorClassIdentifier: 
  m_bRoot: 0
  m_parent: {fileID: 11400000}
  m_eNodeCat: 1
  m_eNodeTag: 5
  m_strTitle: go
  m_strPath: Assets/VillageBuild/AI/Behavior/OnceMove.asset
  m_wndNodeRect:
    serializedVersion: 2
    x: 2531.1584
    y: 1887
    width: 300
    height: 180
  m_nNodeID: 146
  m_bRepeat: 0
  m_bDefaultRange: 1
  m_fCompRange: 0
  m_eDefaultRange: 1
--- !u!114 &-1906088847150436707
MonoBehaviour:
  m_ObjectHideFlags: 0
  m_CorrespondingSourceObject: {fileID: 0}
  m_PrefabInstance: {fileID: 0}
  m_PrefabAsset: {fileID: 0}
  m_GameObject: {fileID: 0}
  m_Enabled: 1
  m_EditorHideFlags: 0
  m_Script: {fileID: 11500000, guid: dbedb33456e95b1469db95efe6b36a48, type: 3}
  m_Name: 
  m_EditorClassIdentifier: 
  m_bRoot: 0
  m_parent: {fileID: 11400000}
  m_eNodeCat: 1
  m_eNodeTag: 5
  m_strTitle: End
  m_strPath: Assets/VillageBuild/AI/Behavior/OnceMove.asset
  m_wndNodeRect:
    serializedVersion: 2
    x: 2524.705
    y: 2080
    width: 300
    height: 200
  m_nNodeID: 147
  m_bRepeat: 0
  m_eAnimType: 0
  m_eAnimClipType: 0
  m_nReAnimClip: 0
  m_strAnimParam: State
--- !u!114 &-1651350936921949116
MonoBehaviour:
  m_ObjectHideFlags: 0
  m_CorrespondingSourceObject: {fileID: 0}
  m_PrefabInstance: {fileID: 0}
  m_PrefabAsset: {fileID: 0}
  m_GameObject: {fileID: 0}
  m_Enabled: 1
  m_EditorHideFlags: 0
  m_Script: {fileID: 11500000, guid: 4ffcdf3c2124f174eb81d9885a1f8a05, type: 3}
  m_Name: 
  m_EditorClassIdentifier: 
  m_bRoot: 0
  m_parent: {fileID: 11400000}
  m_eNodeCat: 1
  m_eNodeTag: 5
  m_strTitle: wait2
  m_strPath: Assets/VillageBuild/AI/Behavior/OnceMove.asset
  m_wndNodeRect:
    serializedVersion: 2
    x: 2523.2305
    y: 2286
    width: 300
    height: 180
  m_nNodeID: 148
  m_bRepeat: 0
  m_fWaitTime: 2
--- !u!114 &11400000
MonoBehaviour:
  m_ObjectHideFlags: 0
  m_CorrespondingSourceObject: {fileID: 0}
  m_PrefabInstance: {fileID: 0}
  m_PrefabAsset: {fileID: 0}
  m_GameObject: {fileID: 0}
  m_Enabled: 1
  m_EditorHideFlags: 0
  m_Script: {fileID: 11500000, guid: 6745adb724d2bc941a9c4ce18b95b086, type: 3}
  m_Name: OnceMove
  m_EditorClassIdentifier: 
  m_bRoot: 1
  m_parent: {fileID: 0}
  m_eNodeCat: 0
  m_eNodeTag: 3
  m_strTitle: OnceMove
  m_strPath: Assets/VillageBuild/AI/Behavior/OnceMove.asset
  m_wndNodeRect:
    serializedVersion: 2
    x: 2535.1584
    y: 1502
    width: 300
    height: 160
  m_nNodeID: 144
  m_lstChild:
  - {fileID: -8042816573345726040}
  - {fileID: -4461756212114604601}
  - {fileID: -1906088847150436707}
  - {fileID: -1651350936921949116}
  m_lstSlot: []
