%YAML 1.1
%TAG !u! tag:unity3d.com,2011:
--- !u!114 &11400000
MonoBehaviour:
  m_ObjectHideFlags: 0
  m_CorrespondingSourceObject: {fileID: 0}
  m_PrefabInstance: {fileID: 0}
  m_PrefabAsset: {fileID: 0}
  m_GameObject: {fileID: 0}
  m_Enabled: 1
  m_EditorHideFlags: 0
  m_Script: {fileID: 11500000, guid: ae57748ccab72d245ab788d7b5088ee5, type: 3}
  m_Name: Grass0Scale0
  m_EditorClassIdentifier: 
  m_strName: New
  m_fHp: 200
  m_fAttackDamage: 10
  m_fMoveSpeed: 1
  m_fRotateSpeed: 1
  m_fAttackSpeed: 1
  m_fSerachRange: 0
  m_fAttackRange: 0
  m_fNearRange: 0
  m_lstCoolTime: []
