%YAML 1.1
%TAG !u! tag:unity3d.com,2011:
--- !u!114 &11400000
MonoBehaviour:
  m_ObjectHideFlags: 0
  m_CorrespondingSourceObject: {fileID: 0}
  m_PrefabInstance: {fileID: 0}
  m_PrefabAsset: {fileID: 0}
  m_GameObject: {fileID: 0}
  m_Enabled: 1
  m_EditorHideFlags: 0
  m_Script: {fileID: 11500000, guid: ae57748ccab72d245ab788d7b5088ee5, type: 3}
  m_Name: BatState
  m_EditorClassIdentifier: 
  m_strName: New
  m_fHp: 80
  m_fAttackDamage: 20
  m_fMoveSpeed: 10
  m_fRotateSpeed: 5
  m_fAttackSpeed: 1
  m_fSerachRange: 150
  m_fAttackRange: 2
  m_fNearRange: 2
  m_lstCoolTime:
  - m_name: soft
    m_fCoolTime: 3
  - m_name: hard
    m_fCoolTime: 7
