%YAML 1.1
%TAG !u! tag:unity3d.com,2011:
--- !u!114 &11400000
MonoBehaviour:
  m_ObjectHideFlags: 0
  m_CorrespondingSourceObject: {fileID: 0}
  m_PrefabInstance: {fileID: 0}
  m_PrefabAsset: {fileID: 0}
  m_GameObject: {fileID: 0}
  m_Enabled: 1
  m_EditorHideFlags: 0
  m_Script: {fileID: 11500000, guid: 5b031f469d96a544697cd76cb261423a, type: 3}
  m_Name: Glassland2BattleData
  m_EditorClassIdentifier: 
  m_eAreaType: 0
  m_AreaMapPref: {fileID: 1911339613783233648, guid: cb372066cb0907847b89096cdb329d9b, type: 3}
  m_BAAsset: {fileID: 11400000, guid: d2ee402733a09ad4ca6642cb1a6f6637, type: 2}
  m_lstSponPoint:
  - {fileID: 2488408503102672952, guid: 45eb290df59d6ab4e8b8b05e0b82b558, type: 3}
  - {fileID: 4365877115782129516, guid: fb83fe3c1852990418153e22ae2f11c1, type: 3}
  m_lstLevelScale: []
